train,eval
0.14512245363022408,0.05964059722675404
0.012096966794183185,0.04972585305624025
0.008220556092959968,0.04995759515563997
0.006044508536990612,0.038371844236857036
0.004956188876151472,0.036555487023745205
0.0041193255856686005,0.0368330596205057
0.0036641495494987983,0.03584029677678162
0.0031818529657094384,0.03211559272554874
0.0029885918030181694,0.03382127860947971
0.0026954353491785376,0.03164956459454195
0.0025909725561894703,0.031036726615562196
0.0021486480556446477,0.03065119550274816
0.0021007388536065695,0.02984626876193584
0.0019454770225354617,0.03134583804107101
0.0018699480627138794,0.029217737551834305
0.001679754647754647,0.03102673513332749
0.001631907588914072,0.030514224828876765
0.001563049607996262,0.03118695481909885
0.0014995019594079768,0.026975354493487442
0.0014950652016841302,0.02646180371340679
0.0014543440922459197,0.031934159415983925
0.0013913959065319738,0.028463309296262517
0.0013334048264080065,0.025848597934646663
0.00136169759941878,0.029097467721079174
0.0011650808422917778,0.02979354256416448
0.001236571342316707,0.02785712396496461
0.0011379721887722842,0.02900309727386191
0.001151016462107483,0.02631742914049873
0.0010569245003762176,0.0300729238288805
0.0009997063471414351,0.026110029350687475
