train,eval
69.30708813667297,20.616835117340088
67.5176739692688,20.462079286575317
68.13382363319397,20.547130584716797
67.35945391654968,20.729997158050537
68.02051901817322,20.92505192756653
67.71937370300293,21.110085248947144
68.6075267791748,20.631386041641235
68.0737853050232,20.648624897003174
67.73817777633667,20.717032432556152
69.3319308757782,21.00387191772461
70.00040125846863,21.23911213874817
67.56993770599365,20.612650871276855
67.17930459976196,20.652387857437134
67.45089912414551,21.59205460548401
69.09766626358032,22.043458461761475
68.23289942741394,21.4275906085968
68.96629190444946,21.127416372299194
69.53840851783752,21.08267307281494
68.70984530448914,20.64152479171753
68.4344129562378,21.005674600601196
68.28688073158264,20.710218906402588
67.61691308021545,20.667712450027466
67.27184391021729,20.589824676513672
68.9829785823822,21.292750358581543
69.40102291107178,21.634406805038452
69.47595429420471,20.73496150970459
67.89955997467041,21.076993465423584
67.59988403320312,20.675315618515015
68.6702868938446,21.391018867492676
67.83212447166443,21.28374695777893
