train,eval
0.1026587981956488,0.02441915192306829
0.0028956606541254114,0.01951837340717427
0.0017135472702930218,0.01765700711681783
0.0009576950378583732,0.01620989691639896
0.0007797484587896035,0.01688476048650148
0.0006122236730236409,0.014672767815449026
0.0005572803242591237,0.015341862357585547
0.0004908639442090131,0.016113989937412684
0.0004827705546603969,0.014381602677741271
0.00039275493667711195,0.015061997844875318
0.0003361830661273698,0.013162106951915095
0.0003315972230038841,0.014205899097588615
0.0003146994946800575,0.014647202442595276
0.00029272093752898967,0.012794914304296827
0.00025733448328984647,0.013988476233621632
0.00021918423811348648,0.01346718938141966
0.00023829166468980877,0.013046706763721681
0.00020095282354738056,0.012778007788735304
0.00019533871742231034,0.013687476713696502
0.00018758376010190536,0.012115052884565929
0.00018338411086872604,0.012026863197040168
0.00017027548292630537,0.012429081050401986
0.00016450115721616107,0.011268644076396963
0.00018287180585680024,0.013406691058050238
0.00019233568558867846,0.012348885286511676
0.00015901745905939468,0.012496617151591123
0.00016171028440134774,0.012992260819788807
0.0001432127096303993,0.011872261490170273
0.000138094064137246,0.012624938137393566
0.0001258621193966582,0.013008571456895213
