train,eval
192.16444420814514,20.791671752929688
192.01942038536072,20.771703481674194
192.2328176498413,20.80279779434204
192.21127343177795,20.788332223892212
192.33681678771973,20.737590789794922
192.3321635723114,20.828103065490723
192.44561290740967,20.76718306541443
193.22791028022766,20.873722076416016
192.1571934223175,20.81182098388672
192.06985712051392,20.877168655395508
192.08449053764343,20.906925678253174
192.1471586227417,20.87475347518921
192.14019775390625,20.842604160308838
192.19964289665222,20.831888437271118
192.7762382030487,20.8444881439209
192.12726521492004,20.860780477523804
193.72573137283325,21.539798736572266
192.65482449531555,21.01292610168457
192.59736132621765,21.035118579864502
192.54929399490356,21.018944263458252
192.55564069747925,20.96812891960144
192.48776268959045,21.063066720962524
192.52801704406738,21.035679578781128
192.48006439208984,21.04010272026062
192.47604060173035,21.031049489974976
192.45368266105652,20.98272180557251
192.49974417686462,21.05626082420349
192.58047723770142,20.959891319274902
193.95000338554382,21.033066987991333
194.43043851852417,20.98233199119568
