train,eval
195.2006950378418,21.42465591430664
196.4458041191101,21.49573063850403
195.5003547668457,21.443127155303955
195.53908967971802,21.150155782699585
193.3452627658844,21.02512264251709
193.21806073188782,20.985650539398193
193.9248764514923,21.125743865966797
194.41044902801514,20.97588872909546
193.0141155719757,21.038849592208862
192.97295022010803,20.908952474594116
192.9264006614685,20.97817373275757
192.89287304878235,20.991085290908813
192.8910551071167,20.983076810836792
192.91015601158142,20.986098051071167
192.99523043632507,20.989104986190796
193.2399411201477,20.9865403175354
193.09149861335754,21.03280258178711
193.13690614700317,21.095765113830566
193.15451383590698,20.937482118606567
193.1392002105713,20.99053144454956
193.06015181541443,21.035837173461914
193.11835289001465,21.370654106140137
193.06180834770203,20.992977619171143
192.9623899459839,21.02441430091858
193.12501573562622,20.942565202713013
193.19794130325317,20.997461318969727
193.14163446426392,20.998992204666138
193.2417733669281,21.014469861984253
193.10434865951538,20.964763164520264
193.1644446849823,20.999250411987305
